…
```r
averageStepsDay<-summarize(groupStepsDay, mean(steps, na.rm = TRUE))
print(averageStepsDay)
```

```
## # A tibble: 61 × 2
##          date `mean(steps, na.rm = TRUE)`
##        <fctr>                       <dbl>
## 1  2012-10-01                         NaN
## 2  2012-10-02                     0.43750
## 3  2012-10-03                    39.41667
## 4  2012-10-04                    42.06944
## 5  2012-10-05                    46.15972
## 6  2012-10-06                    53.54167
## 7  2012-10-07                    38.24653
## 8  2012-10-08                         NaN
## 9  2012-10-09                    44.48264
## 10 2012-10-10                    34.37500
## # ... with 51 more rows
```
Median number of steps taken each day  

```r
medianStepsDay<-summarize(groupStepsDay, median(steps, na.rm = TRUE))
print(medianStepsDay)
```

```
## # A tibble: 61 × 2
##          date `median(steps, na.rm = TRUE)`
##        <fctr>                         <dbl>
## 1  2012-10-01                            NA
## 2  2012-10-02                             0
## 3  2012-10-03                             0
## 4  2012-10-04                             0
## 5  2012-10-05                             0
## 6  2012-10-06                             0
## 7  2012-10-07                             0
## 8  2012-10-08                            NA
## 9  2012-10-09                             0
## 10 2012-10-10                             0
## # ... with 51 more rows
```
…
